{
	"name": "pino",
	"alturas": [
		{
			"altura": "5",
			"diametros": [{
				"10a14": "0.028",
				"15a19": "0",
				"20a24": "0",
				"25a29": "0",
				"30a34": "0",
				"35a39": "0",
				"40a44": "0",
				"45a49": "0",
				"50a54": "0",
				"55a59": "0",
				"60a64": "0",
				"65a69": "0",
				"70a74": "0",
				"75a79": "0",
				"80a84": "0",
				"85a89": "0",
				"90a94": "0",
				"95a99": "0"
			}]
		},
		{
			"altura": "6",
			"diametros": [{
				"10a14": "0.48",
				"15a19": "0",
				"20a24": "0",
				"25a29": "0",
				"30a34": "0",
				"35a39": "0",
				"40a44": "0",
				"45a49": "0",
				"50a54": "0",
				"55a59": "0",
				"60a64": "0",
				"65a69": "0",
				"70a74": "0",
				"75a79": "0",
				"80a84": "0",
				"85a89": "0",
				"90a94": "0",
				"95a99": "0"
			}]
		},
		{
			"altura": "7",
			"diametros": [{
				"10a14": "0.053",
				"15a19": "0.104",
				"20a24": "0",
				"25a29": "0",
				"30a34": "0",
				"35a39": "0",
				"40a44": "0",
				"45a49": "0",
				"50a54": "0",
				"55a59": "0",
				"60a64": "0",
				"65a69": "0",
				"70a74": "0",
				"75a79": "0",
				"80a84": "0",
				"85a89": "0",
				"90a94": "0",
			  "95a99": "0"
			}]
		},
		{
			"altura": "8",
			"diametros": [{
				"10a14": "0.058",
				"15a19": "0.113",
				"20a24": "0.187",
				"25a29": "0",
				"30a34": "0",
				"35a39": "0",
				"40a44": "0",
				"45a49": "0",
				"50a54": "0",
				"55a59": "0",
				"60a64": "0",
				"65a69": "0",
				"70a74": "0",
				"75a79": "0",
				"80a84": "0",
				"85a89": "0",
				"90a94": "0",
				"95a99": "0"
			}]
		},
		{
			"altura": "9",
			"diametros": [{
				"10a14": "0.062",
				"15a19": "0.123",
				"20a24": "0.203",
				"25a29": "0.303",
				"30a34": "0.423",
				"35a39": "0",
				"40a44": "0",
				"45a49": "0",
				"50a54": "0",
				"55a59": "0",
				"60a64": "0",
				"65a69": "0",
				"70a74": "0",
				"75a79": "0",
		  	"80a84": "0",
				"85a89": "0",
				"90a94": "0",
				"95a99": "0"
			}]
		},
		{
			"altura": "10",
			"diametros": [{
				"10a14": "0.067",
				"15a19": "0.132",
				"20a24": "0.218",
				"25a29": "0.326",
				"30a34": "0.455",
				"35a39": "0.606",
				"40a44": "0.78",
				"45a49": "0.973",
				"50a54": "0",
		  	"55a59": "0",
				"60a64": "0",
				"65a69": "0",
				"70a74": "0",
				"75a79": "0",
				"80a84": "0",
				"85a89": "0",
				"90a94": "0",
				"95a99": "0"
			}]
		},
		{
			"altura": "11",
			"diametros": [{
				"10a14": "0.072",
				"15a19": "0.141",
				"20a24": "0.237",
				"25a29": "0.349",
				"30a34": "0.487",
				"35a39": "0.649",
				"40a44": "0.834",
				"45a49": "1.042",
				"50a54": "0",
		  	"55a59": "0",
				"60a64": "0",
				"65a69": "0",
			  "70a74": "0",
				"75a79": "0",
				"80a84": "0",
				"85a89": "0",
				"90a94": "0",
				"95a99": "0"
			}]
		},
		{
			"altura": "12",
			"diametros": [{
				"10a14": "0.077",
				"15a19": "0.15",
				"20a24": "0.249",
				"25a29": "0.372",
			  "30a34": "0.52",
				"35a39": "0.692",
				"40a44": "0.89",
				"45a49": "1.109",
				"50a54": "1.357",
				"55a59": "0",
				"60a64": "0",
				"65a69": "0",
				"70a74": "0",
				"75a79": "0",
				"80a84": "0",
				"85a89": "0",
				"90a94": "0",
				"95a99": "0"
			}]
		},
		{
			"altura": "13",
			"diametros": [{
				"10a14": "0.082",
				"15a19": "0.160",
				"20a24": "0.264",
				"25a29": "0.395",
				"30a34": "0.552",
				"35a39": "0.735",
				"40a44": "0.944",
				"45a49": "1.18",
				"50a54": "1.441",
				"55a59": "1.729",
				"60a64": "0",
				"65a69": "0",
				"70a74": "0",
				"75a79": "0",
				"80a84": "0",
				"85a89": "0",
				"90a94": "0",
				"95a99": "0"
			}]
		},
		{
			"altura": "14",
			"diametros": [{
				"10a14": "0.086",
				"15a19": "0.169",
				"20a24": "0.280",
				"25a29": "0.418",
				"30a34": "0.584",
				"35a39": "0.778",
				"40a44": "1.000",
				"45a49": "1.25",
				"50a54": "1.525",
				"55a59": "1.83",
				"60a64": "2.162",
				"65a69": "0",
				"70a74": "0",
				"75a79": "0",
				"80a84": "0",
				"85a89": "0",
				"90a94": "0",
				"95a99": "0"
			}]
		},
		{
			"altura": "15",
			"diametros": [{
				"10a14": "0.091",
				"15a19": "0.178",
				"20a24": "0.295",
				"25a29": "0.441",
				"30a34": "0.617",
				"35a39": "0.821",
				"40a44": "1.055",
				"45a49": "1.318",
				"50a54": "1.610",
				"55a59": "1.93",
		  	"60a64": "2.281",
				"65a69": "2.660",
				"70a74": "0",
				"75a79": "0",
				"80a84": "0",
			  "85a89": "0",
				"90a94": "0",
				"95a99": "0"
			}]
			},
			{
				"altura": "16",
				"diametros": [{
					"10a14": "0.096",
					"15a19": "0.188",
					"20a24": "0.311",
					"25a29": "0.464",
					"30a34": "0.650",
					"35a39": "0.864",
					"40a44": "1.110",
			    "45a49": "1.387",
					"50a54": "1.694",
					"55a59": "2.032",
					"60a64": "2.400",
					"65a69": "2.800",
					"70a74": "3.230",
					"75a79": "0",
					"80a84": "0",
					"85a89": "0",
					"90a94": "0",
					"95a99": "0"
				}]
			},
			{
			  "altura": "17",
				"diametros": [{
					"10a14": "0.10",
				  "15a19": "0.197",
				  "20a24": "0.326",
					"25a29": "0.487",
					"30a34": "0.681",
					"35a39": "0.807",
				  "40a44": "1.165",
				  "45a49": "1.455",
				  "50a54": "1.778",
					"55a59": "2.133",
				  "60a64": "2.520",
					"65a69": "2.94",
					"70a74": "3.39",
					"75a79": "0",
					"80a84": "0",
					"85a89": "0",
					"90a94": "0",
					"95a99": "0"
				}]
			},
			{
				"altura": "18",
				"diametros": [{
					"10a14": "0.105",
					"15a19": "0.207",
		   		"20a24": "0.342",
					"25a29": "0.511",
					"30a34": "0.713",
					"35a39": "0.95",
					"40a44": "1.22",
					"45a49": "1.525",
					"50a54": "1.862",
					"55a59": "2.234",
					"60a64": "2.69",
		  		"65a69": "3.078",
					"70a74": "3.551",
					"75a79": "0",
					"80a84": "0",
					"85a89": "0",
					"90a94": "0",
			  	"95a99": "0"
				}]
			},
			{
				"altura": "19",
				"diametros": [{
					"10a14": "0",
					"15a19": "0.216",
					"20a24": "0.357",
					"25a29": "0.534",
					"30a34": "0.746",
					"35a39": "0.993",
					"40a44": "1.275",
					"45a49": "1.593",
					"50a54": "1.946",
					"55a59": "2.335",
					"60a64": "2.758",
					"65a69": "3.217",
					"70a74": "3.712",
					"75a79": "0",
					"80a84": "0",
					"85a89": "0",
					"90a94": "0",
					"95a99": "0"
				}]
			},
			{
				"altura": "20",
				"diametros": [{
					"10a14": "0.225",
					"15a19": "0.373",
					"20a24": "0.557",
					"25a29": "0.778",
				  "30a34": "1.036",
					"35a39": "1.330",
					"40a44": "1.662",
					"45a49": "2.030",
					"50a54": "2.436",
				  "55a59": "2.878",
					"60a64": "3.357",
					"65a69": "3.872",
					"70a74": "0",
					"75a79": "0",
					"80a84": "0",
					"85a89": "0",
					"90a94": "0",
					"95a99": "0"
				}]
			},
			{
				"altura": "21",
				"diametros": [{
					"10a14": "0",
					"15a19": "0.235",
					"20a24": "0.388",
				  "25a29": "0.580",
					"30a34": "0.810",
					"35a39": "1.079",
					"40a44": "1.386",
					"45a49": "1.731",
					"50a54": "2.115",
					"55a59": "2.537",
					"60a64": "2.997",
					"65a69": "3.496",
					"70a74": "4.033",
					"75a79": "0",
					"80a84": "0",
					"85a89": "0",
					"90a94": "0",
					"95a99": "0"
				}]
			},
			{
				"altura": "22",
				"diametros": [{
					"10a14": "0",
					"15a19": "0",
					"20a24": "0.404",
					"25a29": "0.603",
					"30a34": "0.843",
					"35a39": "1.122",
			  	"40a44": "1.441",
				  "45a49": "1.8",
					"50a54": "2.2",
					"55a59": "2.638",
					"60a64": "3.116",
					"65a69": "3.635",
					"70a74": "4.194",
					"75a79": "0",
  				"80a84": "0",
					"85a89": "0",
					"90a94": "0",
					"95a99": "0"
				}]
			},
			{
				"altura": "23",
				"diametros": [{
					"10a14": "0",
					"15a19": "0",
					"20a24": "0.419",
			    "25a29": "0.626",
					"30a34": "0.875",
					"35a39": "1.165",
					"40a44": "1.496",
					"45a49": "1.869",
					"50a54": "2.283",
					"55a59": "2.739",
					"60a64": "3.236",
					"65a69": "3.774",
					"70a74": "4.354",
					"75a79": "0",
					"80a84": "0",
					"85a89": "0",
					"90a94": "0",
					"95a99": "0"
				}]
			},
			{
				"altura": "24",
				"diametros": [{
					"10a14": "0",
					"15a19": "0",
					"20a24": "0.435",
					"25a29": "0.649",
					"30a34": "0.907",
					"35a39": "1.208",
					"40a44": "1.551",
					"45a49": "1.938",
					"50a54": "2.367",
			  	"55a59": "2.84",
					"60a64": "3.355",
					"65a69": "3.913",
					"70a74": "4.515",
				  "75a79": "0",
					"80a84": "0",
					"85a89": "0",
					"90a94": "0",
					"95a99": "0"
				}]
			},
			{
				"altura": "25",
				"diametros": [{
					"10a14": "0",
					"15a19": "0",
					"20a24": "0.45",
			  	"25a29": "0.672",
					"30a34": "0.94",
					"35a39": "1.25",
					"40a44": "1.606",
					"45a49": "2.006",
					"50a54": "2.451",
					"55a59": "2.941",
					"60a64": "3.474",
					"65a69": "4.052",
					"70a74": "4.675",
					"75a79": "0",
					"80a84": "0",
					"85a89": "0",
					"90a94": "0",
					"95a99": "0"
				}]
			}]
}
